30

O 0.000000 0.000000 0.000000
H -0.171389 -0.936534 -0.098797
H 0.948540 0.082119 -0.098796
O 2.781233 0.000000 0.000000
H 3.002860 0.683765 0.632122
H 3.445200 0.081742 -0.684615
O -0.262820 -2.768787 0.000000
H -0.406924 -3.422080 -0.684598
H -0.964481 -2.924790 0.632113
O -1.105629 1.215579 2.130334
H -0.737288 0.810605 1.345126
H -1.709431 1.879442 1.797255
O 1.254668 -1.379416 4.109794
H 1.758643 -1.933522 4.705787
H 1.516529 -1.667303 3.235276
O 1.910172 -2.100077 1.601938
H 2.326166 -1.432467 1.056524
H 1.206236 -2.451118 1.056525
O 1.322287 1.317489 3.466804
H 0.444216 1.412153 3.097667
H 1.331364 0.436793 3.841667
O -1.436554 -1.191840 3.466795
H -1.447807 -0.308752 3.097661
H -0.560658 -1.284112 3.841659
O -2.220871 -3.167678 1.811744
H -1.971481 -2.474576 2.423009
H -2.994391 -3.569556 2.207210
O 3.363416 1.911561 1.811765
H 2.649844 1.728792 2.423028
H 3.836610 2.643625 2.207242

