O1 0.000000 0.000000 0.000000
H2 -0.312942 -0.060021 -0.902605
H3 0.447091 -0.832088 0.154824
O4 5.435275 0.000000 0.000000
H5 5.748222 0.060016 0.902604
H6 4.988182 0.832089 -0.154817
O7 4.064180 -2.360604 0.000000
H8 4.122689 -2.687499 -0.897746
H9 4.577815 -1.552898 -0.004754
O10 4.064167 2.318303 -0.444824
H11 4.167083 2.444375 -1.388087
H12 3.119875 2.370986 -0.297278
O13 1.371102 -2.318305 0.444846
H14 1.268183 -2.444384 1.388109
H15 2.315394 -2.370986 0.297304
O16 1.371092 2.360600 0.000034
H17 1.312584 2.687483 0.897785
H18 0.857456 1.552895 0.004777
O19 3.907729 -2.807880 -2.741267
H20 3.997027 -3.526290 -3.367482
H21 2.964414 -2.656304 -2.682843
O22 1.360757 -2.144146 3.221289
H23 1.013099 -1.256463 3.135354
H24 0.894665 -2.512827 3.971665
O25 5.746300 0.165462 2.759519
H26 6.414578 0.010062 3.426967
H27 5.147243 -0.576489 2.842404
O28 -0.311016 -0.165481 -2.759518
H29 0.288036 0.576476 -2.842394
H30 -0.979290 -0.010081 -3.426971
O31 1.527546 2.807833 2.741310
H32 2.470862 2.656264 2.682878
H33 1.438248 3.526233 3.367536
O34 4.074507 2.144121 -3.221264
H35 4.422158 1.256435 -3.135334
H36 4.540596 2.512801 -3.971642
O37 1.339985 1.960534 -2.763148
H38 1.310980 2.319118 -1.876126
H39 2.251477 2.066955 -3.035339
O40 4.159791 2.408613 2.344240
H41 4.746759 1.694072 2.591490
H42 4.306113 2.525482 1.405537
O43 1.275485 -2.408635 -2.344217
H44 1.129157 -2.525497 -1.405514
H45 0.688521 -1.694094 -2.591476
O46 4.095280 -1.960538 2.763179
H47 3.183789 -2.066965 3.035371
H48 4.124285 -2.319122 1.876156
O49 0.332107 0.299470 2.756126
H50 0.006257 0.282074 1.856264
H51 0.691298 1.180100 2.864313
O52 5.103145 -0.299503 -2.756116
H53 5.428998 -0.282095 -1.856255
H54 4.743963 -1.180138 -2.864293

