O1 0.000000 0.000000 0.000000
H2 -0.449852 -0.719302 -0.443249
H3 -0.294157 -0.056883 0.909103
O4 2.701861 0.000000 0.000000
H5 2.951173 0.597995 0.704612
H6 1.744796 0.016042 -0.000995
O7 3.055620 -2.728100 0.000000
H8 3.031023 -1.771704 0.030561
H9 2.977397 -2.999525 0.914572
O10 -0.818479 -0.120292 2.608077
H11 -1.334871 0.681599 2.688958
H12 -1.460223 -0.827063 2.677877
O13 2.718934 -0.323580 -2.720834
H14 2.839553 -0.201112 -1.779194
H15 2.458196 0.539023 -3.043576
O16 -0.168573 2.462973 -1.128919
H17 -1.038009 2.510138 -1.526524
H18 -0.127960 1.587598 -0.743819
O19 -1.091374 -2.118894 -1.364798
H20 -0.782858 -1.918009 -2.248368
H21 -0.594842 -2.895936 -1.108103
O22 -3.233142 1.592029 0.057646
H23 -3.325093 0.639845 0.091139
H24 -3.098115 1.787626 -0.869576
O25 0.828946 -4.052148 -0.952046
H26 1.653051 -3.650955 -0.676136
H27 0.995164 -4.351414 -1.845938
O28 0.523760 -1.778780 -3.597997
H29 1.334623 -1.343692 -3.334497
H30 0.781859 -2.684672 -3.768228
O31 1.813765 -0.623270 3.161766
H32 2.233833 0.199911 2.912471
H33 0.876523 -0.451853 3.069975
O34 -2.126382 2.314867 2.378699
H35 -2.540718 2.101786 1.542545
H36 -2.772818 2.851900 2.836899
O37 -2.305255 -2.466410 2.441187
H38 -2.789647 -3.085570 2.987297
H39 -1.528616 -2.950484 2.160587
O40 2.430522 -3.173437 2.652841
H41 2.877521 -3.510065 3.429439
H42 2.228995 -2.262718 2.867804
O43 2.761742 1.778403 2.144782
H44 3.331777 2.446426 2.525622
H45 1.944615 2.239648 1.955604
O46 -0.100569 -3.802440 1.656459
H47 0.754335 -3.666557 2.065002
H48 0.101613 -4.065592 0.758626
O49 0.453722 3.020598 1.542468
H50 -0.395976 2.842601 1.945660
H51 0.271284 3.055014 0.603445
O52 -2.535606 2.052917 -2.574016
H53 -1.954574 1.497849 -3.094144
H54 -3.194085 2.360977 -3.196701
O55 -3.130919 -1.110354 0.173156
H56 -2.991487 -1.611536 0.976653
H57 -2.564098 -1.530920 -0.473428
O58 -0.685774 0.683510 -3.979825
H59 -0.422263 -0.236483 -3.999988
H60 0.137779 1.167803 -3.921062
O61 3.744809 -2.916494 -2.686378
H62 3.749028 -2.974075 -1.730921
H63 3.622341 -1.985114 -2.870132
O64 1.589104 2.155379 -3.204047
H65 1.951411 3.002978 -3.462002
H66 1.051777 2.347894 -2.435640
O67 1.670679 -4.338656 -3.612862
H68 1.911678 -5.023429 -4.236751
H69 2.501862 -3.928586 -3.373677

