O1 0.000000 0.000000 0.000000
H2 -0.285573 0.474296 -0.780847
H3 -0.506684 -0.811982 -0.013714
O4 2.717847 0.000000 0.000000
H5 2.988639 -0.373179 0.838833
H6 1.761195 -0.017914 0.027006
O7 -1.510051 -2.292611 0.000000
H8 -2.168571 -2.183609 0.686076
H9 -2.012722 -2.311046 -0.814379
O10 3.171736 -0.697911 -2.601511
H11 3.101139 -0.465552 -1.675629
H12 2.911141 -1.618210 -2.638528
O13 3.409111 2.497362 -0.851419
H14 3.240207 1.611857 -0.529574
H15 3.335015 3.052935 -0.075481
O16 -0.332137 1.036703 2.491304
H17 -0.205636 0.701534 1.603672
H18 -0.940512 1.768319 2.387140
O19 -0.613905 1.321813 -2.330266
H20 -0.174881 2.168365 -2.247562
H21 -0.160453 0.885779 -3.051715
O22 -3.452599 0.885111 1.156969
H23 -2.995897 1.708782 1.327912
H24 -3.427474 0.789888 0.204849
O25 1.174367 0.349990 -4.185247
H26 1.468385 1.158242 -4.605381
H27 1.945209 0.028412 -3.717678
O28 1.360795 -3.036041 2.891001
H29 1.258796 -3.798179 3.461067
H30 0.580280 -2.506982 3.055698
O31 1.259276 3.360600 -2.330604
H32 2.062300 3.098541 -1.880373
H33 1.495072 3.365909 -3.258292
O34 -0.821061 -1.554027 3.304466
H35 -0.658064 -0.615526 3.210231
H36 -1.703007 -1.680742 2.954685
O37 1.036054 -3.294379 0.117934
H38 0.121171 -3.016439 0.073539
H39 1.252528 -3.259485 1.049682
O40 -3.284718 -1.635452 2.026564
H41 -4.155824 -1.868927 2.347338
H42 -3.363992 -0.718880 1.762284
O43 2.026632 -3.197947 -2.381033
H44 2.338466 -4.088640 -2.541214
H45 1.704826 -3.214799 -1.479708
O46 2.748353 3.772609 1.498835
H47 3.131208 4.416660 2.094529
H48 2.620303 2.992665 2.038764
O49 -2.634174 -2.113678 -2.523000
H50 -3.172078 -2.597663 -3.149617
H51 -1.768881 -2.073425 -2.930284
O52 -0.179225 -1.997235 -3.607751
H53 0.200049 -1.204685 -3.987549
H54 0.569143 -2.471761 -3.245806
O55 2.325232 1.550751 2.948787
H56 1.379941 1.400458 2.957061
H57 2.706926 0.675099 2.887342
O58 -1.908189 3.148971 1.596831
H59 -2.339814 3.968328 1.838878
H60 -1.169305 3.418943 1.051489
O61 0.265007 3.947021 0.214344
H62 0.482615 3.888746 -0.715969
H63 1.112740 3.962992 0.658558
O64 3.210220 -1.059781 2.500280
H65 4.019188 -1.421520 2.862148
H66 2.559799 -1.750066 2.629474
O67 4.315988 1.730574 -3.355671
H68 4.171061 0.794669 -3.216707
H69 4.244664 2.116685 -2.482709
O70 -3.057081 0.425748 -1.481446
H71 -2.292783 0.864764 -1.854736
H72 -3.055121 -0.442869 -1.883607
O73 2.365558 2.796663 -4.857738
H74 2.683784 3.263661 -5.630316
H75 3.158531 2.479546 -4.425462

