63 

O  0.000000  0.000000  0.000000 
H  -0.213901  0.570619  0.738154 
H  -0.691282  -0.662088  0.000295 
O  2.713664  0.000000  0.000000 
H  2.943289  0.914548  -0.164640 
H  1.758472  -0.021792  -0.058005 
O  -2.124024  -1.745673  0.000000 
H  -1.823003  -2.312299  -0.710319 
H  -2.234058  -2.334574  0.746539 
O  -0.622649  1.504834  2.205461 
H  -0.209693  0.924005  2.844473 
H  -1.552392  1.489125  2.432536 
O  0.002334  1.102903  -2.479079 
H  0.049670  0.694848  -1.614509 
H  -0.660206  1.787378  -2.385449 
O  0.529567  -0.499253  3.775749 
H  1.038758  -0.432082  4.583489 
H  1.103651  -0.965733  3.168250 
O  -0.911730  -3.308536  -1.948160 
H  -1.265041  -3.862543  -2.644206 
H  -0.369867  -2.665289  -2.405161 
O  0.003966  -4.283680  0.479209 
H  -0.217821  -4.010779  -0.411054 
H  0.958513  -4.223829  0.517785 
O  -3.136175  0.844204  0.019652 
H  -3.307998  0.943771  0.956025 
H  -2.912339  -0.080408  -0.086283 
O  -2.104777  -1.291252  3.551952 
H  -2.110123  -2.139801  3.109043 
H  -1.178453  -1.108501  3.709298 
O  0.333455  3.198403  0.225325 
H  -0.421865  3.195982  -0.362654 
H  0.026744  2.747291  1.011872 
O  3.511811  -2.204935  -1.407892 
H  3.345456  -1.397346  -0.921725 
H  3.467350  -1.944664  -2.327954 
O  2.868880  2.723905  -0.554652 
H  3.377934  3.472563  -0.243834 
H  1.967774  2.924871  -0.301959 
O  2.265798  -1.723395  2.123974 
H  2.376878  -2.583063  1.717941 
H  2.571644  -1.103796  1.461563 
O  -2.016926  -3.615829  2.094867 
H  -2.417408  -4.437685  2.378413 
H  -1.236600  -3.883965  1.609659 
O  0.500588  -1.501511  -3.347345 
H  1.424442  -1.468817  -3.595651 
H  0.255086  -0.585834  -3.215069 
O  2.735172  -3.953940  0.471318 
H  3.002315  -3.384893  -0.250522 
H  3.428491  -4.611473  0.527790 
O  -1.925057  2.799193  -1.380292 
H  -2.372572  2.101473  -0.901598 
H  -2.629880  3.367921  -1.690139 
O  2.652918  1.507188  -3.047546 
H  2.911770  1.998885  -2.268147 
H  1.697779  1.466722  -2.999534 
O  -3.302974  0.966385  2.780615 
H  -4.015360  1.178002  3.383903 
H  -2.973042  0.121286  3.085877 
O  3.194805  -0.988059  -3.886247 
H  3.090214  -0.077796  -3.609276 
H  3.737994  -0.938664  -4.672846 
