39 

O  0.000000  0.000000  0.000000 
H  0.954021  0.066017  0.041452 
H  -0.301855  0.358409  0.834661 
O  2.750229  0.000000  0.000000 
H  3.263660  -0.806967  -0.037734 
H  2.824757  0.373155  -0.878313 
O  -0.346642  -2.720258  0.000000 
H  -0.310542  -1.763800  -0.010837 
H  -0.364593  -2.970220  -0.923812 
O  3.999924  -2.459164  -0.279245 
H  4.821268  -2.885499  -0.034573 
H  3.326431  -2.944179  0.197619 
O  2.028149  -3.652836  1.078337 
H  1.171849  -3.481086  0.686567 
H  1.901103  -3.491266  2.013209 
O  2.552722  0.614768  -2.715752 
H  2.737082  1.330031  -3.324556 
H  1.612978  0.457668  -2.807577 
O  -0.611219  0.560144  2.628271 
H  -0.833021  -0.366052  2.724174 
H  -1.265030  1.019324  3.155449 
O  1.611794  -2.698286  3.635314 
H  2.022004  -2.810982  4.492787 
H  1.856655  -1.812794  3.366654 
O  0.062805  -2.908058  -2.748629 
H  -0.047924  -3.586254  -3.414978 
H  1.001996  -2.723258  -2.748044 
O  2.087509  -0.203975  2.723676 
H  1.253757  0.265510  2.749626 
H  2.448101  -0.005134  1.859576 
O  2.661724  -2.187234  -2.680768 
H  2.775295  -1.247926  -2.825799 
H  3.213004  -2.381405  -1.922731 
O  -0.948165  -2.117361  2.690049 
H  -0.964848  -2.527908  1.825523 
H  -0.180259  -2.494006  3.119805 
O  -0.057008  -0.081154  -2.746874 
H  -0.259231  0.058499  -1.821761 
H  -0.234083  -1.010315  -2.893629 
