12

C    2.296046    -0.134818    0
H    3.405013    -0.199933    0
O    1.59337    -1.154846    0
N    1.784578    1.128192    0
H    0.769476    1.251108    0
H    2.392737    1.936416    0
C    -2.296046    0.134818    0
H    -3.405013    0.199933    0
O    -1.593370    1.154846    0
N    -1.784578    -1.128192    0
H    -0.769476    -1.251108    0
H    -2.392737    -1.936416    0

